部门名称,部门ID,父部门ID,排序
公司领导,2,1,10
北京运营中心,3,1,30
深圳运营中心,4,1,31
上海运营中心,5,1,32
广州办事处,6,1,33
福州办事处,7,1,34
厦门办事处,8,1,35
杭州办事处,9,1,36
南京办事处,10,1,37
武汉办事处,11,1,38
宁波办事处,12,1,39
西安办事处,13,1,40
沈阳办事处,14,1,41
大连办事处,15,1,42
成都办事处,16,1,43
重庆办事处,17,1,44
长沙办事处,18,1,45
济南办事处,19,1,46
青岛办事处,20,1,47
郑州办事处,21,1,48
哈尔滨办事处,22,1,49
合肥办事处,23,1,50
新疆办事处,24,1,51
贵阳办事处,25,1,52
海南办事处,26,1,53
兰州办事处,27,1,54
南昌办事处,28,1,55
石家庄办事处,29,1,56
香港办事处,30,1,57
天津办事处,31,1,58
博雅运营中心,32,1,59
呼和浩特办事处,33,1,60
华际友天公司,34,1,61
昆明办事处,35,1,62
财务管理部,36,3,63
技术支持部,37,3,64
商务管理部,38,3,65
市场发展部,39,3,66
行政人事部,40,3,67
销售部,41,3,68
物流管理部,42,3,69
安防事业部,43,3,70
ATM维护部,44,3,71
信息管理部,45,3,72
IT服务管理部,46,3,73
软件开发部,47,3,74
存储服务事业部,48,3,75
研究中心,49,3,76
战略客户部,50,3,77
工业信息化事业部,51,3,78
虚拟化云计算,52,3,79
技术支持部,53,4,30
技术支持部,70,5,30
技术支持部,87,6,30
技术支持部,104,7,30
技术支持部,121,8,30
技术支持部,138,9,30
技术支持部,155,10,30
技术支持部,172,11,30
技术支持部,189,12,30
技术支持部,206,13,30
技术支持部,223,14,30
技术支持部,240,15,30
技术支持部,257,16,30
技术支持部,274,17,30
技术支持部,291,18,30
技术支持部,308,19,30
技术支持部,325,20,30
技术支持部,342,21,30
技术支持部,359,22,30
技术支持部,376,23,30
技术支持部,393,24,30
技术支持部,410,25,30
技术支持部,427,26,30
技术支持部,444,27,30
技术支持部,461,28,30
技术支持部,478,29,30
技术支持部,495,30,30
技术支持部,512,31,30
技术支持部,529,32,30
技术支持部,546,33,30
技术支持部,563,34,30
技术支持部,580,35,30
